…
Det kan v칝re en fin 칮velse 친 kikke p친 eksemplene i l칝reboken og fors칮ke 친 gjenskape noen av Excel-figurene i R. Se p친 eksempel 3.2, der man skal lage to histogrammer over historiske avkastninger for to ulike investeringsstrategier. Vi leser inn datasettet (last ned fra Canvas) som under og kikker p친 det:




```r
library(readxl)
returns <- read_xlsx("Xm03-02.xlsx")
returns
```


```
## # A tibble: 50 x 2
##    `Return A` `Return B`
##         <dbl>      <dbl>
##  1      30         30.3 
##  2      -2.13     -30.4 
##  3       4.3       -5.61
##  4      25         29   
##  5      12.9      -26.0 
##  6     -20.2        0.46
##  7       1.2        2.07
##  8      -2.59      29.4 
##  9      33         11   
## 10      14.3      -25.9 
## # ... with 40 more rows
```
…
Vi kan regne ut hvor mange observasjoner vi forventer 친 se for hver kombinasjon av de to kjennetegnene ($e_{ij}$), og bruke kjikvadrattesten over til 친 sjekke om disse er langt fra det vi *faktisk* har observert ($f_{ij}$). Boken har et eksempel p친 dette som de regner ut b친de for h친nd og i Excel. Slik kan vi gj칮re det i R:


```r
# Leser inn data
mba <- read_xlsx("Xm15-02.xlsx")

# Kikker p친 datasettet
mba
```


```
## # A tibble: 152 x 2
##    Degree `MBA Major`
##     <dbl>       <dbl>
##  1      3           1
##  2      1           1
##  3      1           1
##  4      1           1
##  5      2           2
##  6      1           3
##  7      3           1
##  8      1           1
##  9      2           1
## 10      2           2
## # ... with 142 more rows
```
…
Lang erfaring har vist at avlingen ved bruk av gammel metode er normalfordelt med forventning $\mu = 100$ og varians $\sigma^2 = 10$, der vi har brukt en standardisert enhet for mengde avling per arealenhet. Hjelp bonden, ved 친 l칮se f칮lgende oppgaver:

**Oppgave 1.1:** Les inn datasettet `testdatasdata.xsl` i **RStudio** og se p친 de f칮rste par radene. Det kan du gj칮re ved 친 kj칮re f칮lgende kodelinjer:


```r
library(readxl)                                 # Pakke for 친 lese excel-filer
data <- read_excel("testdata.xls")              # Leser inn datasettet
data                                            # Ser p친 datasettet
```


```
## # A tibble: 25 x 4
##       X1    X2    A1    A2
##    <dbl> <dbl> <dbl> <dbl>
##  1 122.  121.      1     1
##  2 101.  105       1     1
##  3 114.  108       1     1
##  4 103    99.1     1     0
##  5  97.6  96.2     0     0
##  6  85.9  95.4     0     0
##  7  93.5 101.      0     1
##  8  92    97       0     0
##  9  98.8 106.      0     1
## 10  99.9 100.      0     1
## # ... with 15 more rows
```
…
For 친 unders칮ke denne p친standen samlet Roubik inn historiske data over arabicaavlinger fra hele verden. Han delte verdens kaffeproduserende land inn i to kategorier: *Old world* som omfatter afrikanske  og asiatiske land, og *New world* som omfatter land i Latin-Amerika. Han registrerte videre *gjennomsnittlig 친rlig avling* (m친lt i kg/hektar) i to perioder: 1961--80 og 1981--2001.

N칮kkelen til analysen er at den afrikanske honningbien var en viktig pollinator i Afrika og Asia b친de i den f칮rste og andre perioden, men knapt eksisterte i Amerika f칮r 1980. Etter 1980, derimot, 칮kte utbredelsen av denne bien i Amerika, og ble fort naturalisert. Kan vi sette denne utviklingen i sammenheng med 칮kt kaffeavling i Latin-Amerika etter 1980, og dermed skrote teorien om at kaffeplanter ikke drar nytte av insektspollinering?

**Oppgave 3.1:** For 친 unders칮ke dette kan vi bruke datasettet som Roubik brukte, som finnes i filen `roubik_2002_coffe_yield.xlsx`. Last datasettet inn i R p친 vanlig m친te, og se p친 det:


```r
yield <- read_excel("roubik_2002_coffe_yield.xlsx")
yield
```


```
## # A tibble: 28 x 4
##    world country     yield_61_to_80 yield_81_to_01
##    <chr> <chr>                <dbl>          <dbl>
##  1 new   Costa_Rica            9139          14620
##  2 new   Bolivia               7686           8767
##  3 new   El_Salvador           9996           8729
##  4 new   Guatemala             5488           8231
##  5 new   Colombia              5920           7740
##  6 new   Honduras              4096           7264
##  7 new   Nicaragua             4566           6408
##  8 new   Brazil                4965           6283
##  9 new   Peru                  5487           5740
## 10 new   Mexico                5227           5116
## # ... with 18 more rows
```
…
I `dplyr` finnes det noen meget praktiske funksjoner som vi kan bruke til 친 manipulere datasatt i R. La oss ta utgangspunkt i datasettet `violence` og pr칮ve 친 skrive om den aktuell kodelinjen over ved hjelp av pipe-operatoren. I klartekst skal vi gj칮re f칮lgende operasjoner:

1. Starte med datasettet `violence`
2. Plukke ut alle radene som har verdi `"Violent"` i kolonnen `violent_treatment`.
3. Plukke ut kolonnen `aggression_level`

For 친 velge ut bestemte rader kan vi bruke funksjonen `filter()`. Ved hjelp av pipe-operatoren kan vi skrive steg 1 og 2 som


```r
violence %>% filter(violent_treatment == "Violent")
```

```
## # A tibble: 126 x 5
##       id aggression_level violent_treatment difficulty_treatm~ experienced_viol~
##    <dbl>            <dbl> <chr>             <chr>              <chr>            
##  1     1                4 Violent           Easy               Less Violent     
##  2     2                5 Violent           Hard               Violent          
##  3     5                2 Violent           Easy               Violent          
##  4     6                9 Violent           Hard               Less Violent     
##  5    10                4 Violent           Hard               Violent          
##  6    18                4 Violent           Hard               Violent          
##  7    21                4 Violent           Easy               Violent          
##  8    22                9 Violent           Hard               Less Violent     
##  9    25                7 Violent           Easy               Violent          
## 10    26                1 Violent           Hard               Less Violent     
## # ... with 116 more rows
```

N친 ser vi at vi bare har 126 rader igjen, og det er nettopp de radene som i kolonnen `violent_treatment` har verdi `"Violent"`. Det neste steget er 친 velge ut kolonnen `aggression_level`. Det gj칮r vi ved 친 bruke funksjonen `select()`, og hele sekvensen ser da slik ut (linjeskift gj칮r det enda mer lesbart):


```r
violence %>% 
  filter(violent_treatment == "Violent") %>% 
  select(aggression_level)
```

```
## # A tibble: 126 x 1
##    aggression_level
##               <dbl>
##  1                4
##  2                5
##  3                2
##  4                9
##  5                4
##  6                4
##  7                4
##  8                9
##  9                7
## 10                1
## # ... with 116 more rows
```
…
Museet 친pnet igjen i april 1995, men var da betydelig st칮rre enn det var opprinnelig. Data for bes칮kstall for museet og forn칮yelsesparken finner vi i regnearket [`C16-01.xlsx`](datasett/C16-01.xlsx). Som i de to foreg친ende data칮vingene legger du denne filen i en mappe p친 maskinen din, og oppretter et tomt R-script der du lagrer koden for denne oppgaven. 

**Oppgave 2.1:** Kikk raskt p친 datasettet i Excel eller tilsvarende. Du ser at det er tre kolonner, en som angir ukenummer (`Week`, teller fra 1 til 205), en som angir ukentlig bes칮kstall p친 museet (`Museum`) og en som angir ukentlig bes칮kstall i forn칮yelsesparken (`A-Park`). Legg merke til at bes칮kstallet i museet er null fra og med uke 33, til og med uke 179, som er perioden fra brannen til ny친pning.

**Oppgave 2.2:** Last s친 datasettet inn i R som f칮r ved hjelp av `read_excel()`-funksjonen. Gi det et passelig navn (f.eks `visits`), og sjekk raskt at det har g친tt bra ved 친 taste inn datanavnet i konsollen. Da skal det se omtrent slik ut:




```r
visits
```

```
## # A tibble: 205 x 3
##     Week Museum `A-Park`
##    <dbl>  <dbl>    <dbl>
##  1     1    787     1379
##  2     2   1179     1396
##  3     3   4225     5332
##  4     4   1336     1477
##  5     5   2122     3717
##  6     6   1136     1663
##  7     7   2413     3573
##  8     8   1399     2086
##  9     9   1528     2503
## 10    10   1788     2553
## # ... with 195 more rows
```
…
