Løsningsforslag Hjemmeeksamen MET4 V22
…
etter_demokratisering <- 
  dem_df %>% 
  filter(year_since_polity2 == tidsintervall) %>% 
  select(country, primratio) 

# Joiner sammen igjen slik at landene matcher
før_etter <- 
  full_join(før_demokratisering, etter_demokratisering, by = "country")

# Se på denne data framen, legg merke til variabelnavn:
før_etter

## # A tibble: 81 x 3
##    country             primratio.x primratio.y
##    <chr>                     <dbl>       <dbl>
##  1 Canada                     85.8        91.7
##  2 Haiti                      44          26  
##  3 Dominican Republic         72.2        50.6
##  4 Jamaica                   100          97.1
##  5 Trinidad and Tobago        94.8        92.4
##  6 Mexico                    100          98.6
##  7 Guatemala                  67.7        90.9
##  8 Honduras                   74.2        89.4
##  9 El Salvador                66.7        69.4
## 10 Nicaragua                  76          91.3
## # ... with 71 more rows
…
