7.3 Dataøving 3 | MET4 - Empiriske Metoder - Vår 2023
…
7.3.2 Oppgave 2: Regresjonsanalyse

Et rock-and-roll museum åpnet i Atlanta i 1990. Museet lå i en sentral del av byen i nærheten av mange ulike butikker. Mot slutten av juli måned i 1992 startet en stor brann i en av disse butikkene som ødela hele kvartalet, inkludert museet. Heldigvis var museet forsikret, både mot selve brannskadene, og mot tapte billettinntekter i gjennoppbyggingsperioden.

Vanligvis vil et forsikringsselskap beregne erstatningsbeløpet under antakelsen om at besøkstallene i gjenoppbyggingsperioden ville vært på samme nivå som besøkstallene i tiden før brannen. I dette tilfellet mente derimot eierne av museet at besøkstallene var økende, slik at de reelt sett hadde krav på et større erstatningsbeløp. Argumentet var basert på besøkstallene til en fornøyelsespark like ved. Fornøyelsesparken åpnet i desember 1991, slik at museet og parken opererte sammen i de siste fire ukene av 1991, og de første 28 ukene i 1992 før brannen ødela museet.

Museet åpnet igjen i april 1995, men var da betydelig større enn det var opprinnelig. Data for besøkstall for museet og fornøyelsesparken finner vi i regnearket C16-01.xlsx. Som i de to foregående dataøvingene legger du denne filen i en mappe på maskinen din, og oppretter et tomt R-script der du lagrer koden for denne oppgaven.

Oppgave 2.1: Kikk raskt på datasettet i Excel eller tilsvarende. Du ser at det er tre kolonner, en som angir ukenummer (Week, teller fra 1 til 205), en som angir ukentlig besøkstall på museet (Museum) og en som angir ukentlig besøkstall i fornøyelsesparken (A-Park). Legg merke til at besøkstallet i museet er null fra og med uke 33, til og med uke 179, som er perioden fra brannen til nyåpning.

Oppgave 2.2: Last så datasettet inn i R som før ved hjelp av read_excel()-funksjonen. Gi det et passelig navn (f.eks visits), og sjekk raskt at det har gått bra ved å taste inn datanavnet i konsollen. Da skal det se omtrent slik ut:

visits

## # A tibble: 205 x 3
##     Week Museum `A-Park`
##    <dbl>  <dbl>    <dbl>
##  1     1    787     1379
##  2     2   1179     1396
##  3     3   4225     5332
##  4     4   1336     1477
##  5     5   2122     3717
##  6     6   1136     1663
##  7     7   2413     3573
##  8     8   1399     2086
##  9     9   1528     2503
## 10    10   1788     2553
## # ... with 195 more rows
…
