7.2 Dataøving 2 | MET4 - Empiriske Metoder - Høst 2021
…
7.2.3.1 Oppgave 1

Costa Rica er en stor kaffeprodusent med moderne produksjon. Kaffeprodusentene har over lengre tid benyttet en standardisert miks av sprøytemidler som skal ta knekken på ugress og skadelige insekter, men uten å skade avlingen eller miljøet ellers.

En liten kaffeplantasje i Costa Rica har begynt å eksperimentere med en ny kombinasjon av sprøytemidler som skal være like effektiv mot ugress, men samtidig enda mer skånsom mot kaffeplantene, slik at avlingen blir større. Innehaveren av plantasjen ønsker å sette opp et eksperiment for å undersøke denne påstanden. Han velger ut 25 tilfeldige jordlapper fordelt på hele eiendommen der han bruker de nye sprøytemidlene gjennom en hel sesong.

Lang erfaring har vist at avlingen ved bruk av gammel metode er normalfordelt med forventning \(\mu = 100\) og standardavvik \(\sigma = 10\), der vi har brukt en standardisert enhet for mengde avling per arealenhet. Hjelp bonden, ved å løse følgende oppgaver:

Oppgave 1.1: Les inn datasettet testdatasdata.xsl i RStudio og se på de første par radene. Det kan du gjøre ved å kjøre følgende kodelinjer:

library(readxl)                                 # Pakke for å lese excel-filer
data <- read_excel("testdata.xls")              # Leser inn datasettet
data                                            # Ser på datasettet

## # A tibble: 25 x 4
##       X1    X2    A1    A2
##    <dbl> <dbl> <dbl> <dbl>
##  1 122.  121.      1     1
##  2 101.  105       1     1
##  3 114.  108       1     1
##  4 103    99.1     1     0
##  5  97.6  96.2     0     0
##  6  85.9  95.4     0     0
##  7  93.5 101.      0     1
##  8  92    97       0     0
##  9  98.8 106.      0     1
## 10  99.9 100.      0     1
## # ... with 15 more rows
…
Vi skal i denne oppgaven returnere til kaffeproduksjon. Vi skal gjøre statistiske tester i R som i de tidligere oppgavene i denne øvingen, men vanskelighetsgraden går opp fordi vi også må tenke nøye over hvordan vi anvender metodene korrekt i en gitt kontekst.

I 2002 publiserte det prestisjetunge tidsskriftet Nature en kort artikkel skrevet av David W. Roubik1, som handler om den kjente kaffebønnen Arabica. Arabicabønnen kommer opprinnelig fra Afrika, og er en selvpollinerende plante. Det vil si at den ikke er avhengig av insekter for å formere seg, og man trodde lenge at den heller ikke hadde noen fordeler av insektspollinering.

For å undersøke denne påstanden samlet Roubik inn historiske data over arabicaavlinger fra hele verden. Han delte verdens kaffeproduserende land inn i to kategorier: Old world som omfatter afrikanske og asiatiske land, og New world som omfatter land i Latin-Amerika. Han registrerte videre gjennomsnittlig årlig avling (målt i kg/hektar) i to perioder: 1961–80 og 1981–2001.

Nøkkelen til analysen er at den afrikanske honningbien var en viktig pollinator i Afrika og Asia både i den første og andre perioden, men knapt eksisterte i Amerika før 1980. Etter 1980, derimot, økte utbredelsen av denne bien i Amerika, og ble fort naturalisert. Kan vi sette denne utviklingen i sammenheng med økt kaffeavling i Latin-Amerika etter 1980, og dermed skrote teorien om at kaffeplanter ikke drar nytte av insektspollinering?

Oppgave 3.1: For å undersøke dette kan vi bruke datasettet som Roubik brukte, som finnes i filen roubik_2002_coffe_yield.xlsx. Last datasettet inn i R på vanlig måte, og se på det:

yield <- read_excel("roubik_2002_coffe_yield.xlsx")
yield

## # A tibble: 28 x 4
##    world country     yield_61_to_80 yield_81_to_01
##    <chr> <chr>                <dbl>          <dbl>
##  1 new   Costa_Rica            9139          14620
##  2 new   Bolivia               7686           8767
##  3 new   El_Salvador           9996           8729
##  4 new   Guatemala             5488           8231
##  5 new   Colombia              5920           7740
##  6 new   Honduras              4096           7264
##  7 new   Nicaragua             4566           6408
##  8 new   Brazil                4965           6283
##  9 new   Peru                  5487           5740
## 10 new   Mexico                5227           5116
## # ... with 18 more rows
…
KONSEPT 2: Datamanipuleringsfunksjoner i dplyr

I dplyr finnes det noen meget praktiske funksjoner som vi kan bruke til å manipulere datasatt i R. La oss ta utgangspunkt i datasettet violence og prøve å skrive om den aktuell kodelinjen over ved hjelp av pipe-operatoren. I klartekst skal vi gjøre følgende operasjoner:

Starte med datasettet violence

Plukke ut alle radene som har verdi "Violent" i kolonnen violent_treatment.

Plukke ut kolonnen aggression_level

For å velge ut bestemte rader kan vi bruke funksjonen filter(). Ved hjelp av pipe-operatoren kan vi skrive steg 1 og 2 som

violence %>% filter(violent_treatment == "Violent")

## # A tibble: 126 x 5
##       id aggression_level violent_treatment difficulty_treatm~ experienced_viol~
##    <dbl>            <dbl> <chr>             <chr>              <chr>            
##  1     1                4 Violent           Easy               Less Violent     
##  2     2                5 Violent           Hard               Violent          
##  3     5                2 Violent           Easy               Violent          
##  4     6                9 Violent           Hard               Less Violent     
##  5    10                4 Violent           Hard               Violent          
##  6    18                4 Violent           Hard               Violent          
##  7    21                4 Violent           Easy               Violent          
##  8    22                9 Violent           Hard               Less Violent     
##  9    25                7 Violent           Easy               Violent          
## 10    26                1 Violent           Hard               Less Violent     
## # ... with 116 more rows

Nå ser vi at vi bare har 126 rader igjen, og det er nettopp de radene som i kolonnen violent_treatment har verdi "Violent". Det neste steget er å velge ut kolonnen aggression_level. Det gjør vi ved å bruke funksjonen select(), og hele sekvensen ser da slik ut (linjeskift gjør det enda mer lesbart):

violence %>% 
  filter(violent_treatment == "Violent") %>% 
  select(aggression_level)

## # A tibble: 126 x 1
##    aggression_level
##               <dbl>
##  1                4
##  2                5
##  3                2
##  4                9
##  5                4
##  6                4
##  7                4
##  8                9
##  9                7
## 10                1
## # ... with 116 more rows
…
