2.1 Deskriptiv statistikk | MET4 - Empiriske Metoder - Vår 2022
…
I læreboken er det kapitlene 2–4 som behandler deskriptiv statistikk, men det er veldig Excel-fokusert, som ikke er så relevant for oss. Det er likevel ikke dumt å lese gjennom stoffet for å se hva det går i, og legg spesielt merke til følgende punkter:

Ulike datatyper i avsnitt 2-1.

3-4: The art and science of graphical presentations. Hva er det som gjør en grafisk illustrasjon god? Prøv å ta inn over dere all informasjonen som vi lett kan lese ut av bildet på side 75 om Napoleons felttog mot Moskva. Her presenteres informasjon om tid, antall, geografi og temperatur på en helt eksepsjonelt effektiv måte! Videre er det noen grelle eksempler på hvordan vi kan bruke grafiske virkemidler til å gi skjeve fremstillinger. I videoforelesningen gir vi flere eksempler på dette.

Kapittel 4 går litt mer i dybden om numeriske deskriptive teknikker, som gjennomsnitt, median, standardavvik, korrelasjon, osv. Dette skal være dekket greit i forelesningen, men boken går litt lenger.

Det kan være en fin øvelse å kikke på eksemplene i læreboken og forsøke å gjenskape noen av Excel-figurene i R. Se på eksempel 3.2, der man skal lage to histogrammer over historiske avkastninger for to ulike investeringsstrategier. Vi leser inn datasettet (last ned fra Canvas) som under og kikker på det:

library(readxl)
returns <- read_xlsx("Xm03-02.xlsx")
returns

## # A tibble: 50 × 2
##    `Return A` `Return B`
##         <dbl>      <dbl>
##  1      30         30.3 
##  2      -2.13     -30.4 
##  3       4.3       -5.61
##  4      25         29   
##  5      12.9      -26.0 
##  6     -20.2        0.46
##  7       1.2        2.07
##  8      -2.59      29.4 
##  9      33         11   
## 10      14.3      -25.9 
## # … with 40 more rows
…
