3.4 Kjikvadrattester | MET4 - Empiriske Metoder - Høst 2021
…
Den andre anvendelsen er å teste for om to kjennetegn opptrer uavhengig av hverandre. Ideen er den samme som over, fordi vi kan skrive sannsunligheten for «\(A\) og \(B\)» som et produkt dersom de ar uavhengige:

\[P(A \cap B) = P(A)\cdot P(B).\]

Vi kan regne ut hvor mange observasjoner vi forventer å se for hver kombinasjon av de to kjennetegnene (\(e_{ij}\)), og bruke kjikvadrattesten over til å sjekke om disse er langt fra det vi faktisk har observert (\(f_{ij}\)). Boken har et eksempel på dette som de regner ut både for hånd og i Excel. Slik kan vi gjøre det i R:

# Leser inn data
mba <- read_xlsx("Xm15-02.xlsx")

# Kikker på datasettet
mba

## # A tibble: 152 x 2
##    Degree `MBA Major`
##     <dbl>       <dbl>
##  1      3           1
##  2      1           1
##  3      1           1
##  4      1           1
##  5      2           2
##  6      1           3
##  7      3           1
##  8      1           1
##  9      2           1
## 10      2           2
## # ... with 142 more rows
…
